DisImpact Tutorial
…
# Multiple group variables and different reference groups

bind_rows(
  di_iterate(data=student_equity, success_vars=c('Transfer'), group_vars=c('Ethnicity', 'Gender'), cohort_vars=c('Cohort'), ppg_reference_groups='overall')
  , di_iterate(data=student_equity, success_vars=c('Transfer'), group_vars=c('Ethnicity', 'Gender'), cohort_vars=c('Cohort'), ppg_reference_groups=c('White', 'Male'), include_non_disagg_results=FALSE) # include_non_disagg_results = FALSE: Already have this scenario in Overall run
)

## # A tibble: 38 x 19
##    success_variable cohort_variable cohort disaggregation group     n
##    <chr>            <chr>            <int> <chr>          <chr> <dbl>
##  1 Transfer         Cohort            2017 Ethnicity      Asian  3000
##  2 Transfer         Cohort            2017 Ethnicity      Black  1000
##  3 Transfer         Cohort            2017 Ethnicity      Hisp~  2000
##  4 Transfer         Cohort            2017 Ethnicity      Mult~   500
##  5 Transfer         Cohort            2017 Ethnicity      Nati~   100
##  6 Transfer         Cohort            2017 Ethnicity      White  3400
##  7 Transfer         Cohort            2018 Ethnicity      Asian  3000
##  8 Transfer         Cohort            2018 Ethnicity      Black  1000
##  9 Transfer         Cohort            2018 Ethnicity      Hisp~  2000
## 10 Transfer         Cohort            2018 Ethnicity      Mult~   500
## # ... with 28 more rows, and 13 more variables: success <int>, pct <dbl>,
## #   ppg_reference <dbl>, ppg_reference_group <chr>, moe <dbl>,
## #   pct_lo <dbl>, pct_hi <dbl>, di_indicator_ppg <dbl>,
## #   di_prop_index <dbl>, di_indicator_prop_index <dbl>,
## #   di_80_index_reference_group <chr>, di_80_index <dbl>,
## #   di_indicator_80_index <dbl>
…
